OHRV
…
# Check for duplicate reviews    
review_unnested_tbl %>%
    
    group_by(review) %>%
    summarise(n_review = n()) %>%
    ungroup() %>%
    
    filter(n_review > 1) %>% 
    arrange(-n_review) %>%
    
    left_join(review_unnested_tbl, by = "review") %>%
    select(reviewer, n_review, review)

# A tibble: 6,011 × 3
   reviewer                                           n_review review           
   <chr>                                                 <int> <chr>            
 1 <NA>                                                      5  <NA>            
 2 <NA>                                                      5  <NA>            
 3 <NA>                                                      5  <NA>            
 4 <NA>                                                      5  <NA>            
 5 <NA>                                                      5  <NA>            
 6 Lichaas1 contribution                                     2 "#FollowDavid wa…
 7 Lichaas1 contribution                                     2 "#FollowDavid wa…
 8 Woodprakob_WanderingBirmingham, AL26 contributions        2 "1% of all visit…
 9 Woodprakob_WanderingBirmingham, AL26 contributions        2 "1% of all visit…
10 IX0YE4 contributions                                      2 "10 out of 10 fu…
# ℹ 6,001 more rows
…
reviews_filtered <- review_words %>%
    filter(reviews < 700, reviews > 80)

library(widyr)

word_cors <- review_selected_upos_tbl %>%
    
    # Remove words that are too common and least frequent
    semi_join(reviews_filtered, by = "word") %>%
    distinct(review_id, word) %>%
    pairwise_cor(word, review_id, sort = TRUE)

word_cors

# A tibble: 2,162 × 3
   item1   item2   correlation
   <chr>   <chr>         <dbl>
 1 area    history       0.264
 2 history area          0.264
 3 worth   money         0.236
 4 money   worth         0.236
 5 group   people        0.236
 6 people  group         0.236
 7 hour    minute        0.228
 8 minute  hour          0.228
 9 minute  other         0.215
10 other   minute        0.215
# ℹ 2,152 more rows
…
write_rds(network_of_words_in_reviews_fig, "../00_data/fig/network_of_words_in_reviews_fig.rds")

review_unnested_tbl %>%
    filter(str_detect(review, "money")) %>% 
    arrange(tour_rating) %>% 
    select(review)

# A tibble: 870 × 1
   review                                                                       
   <chr>                                                                        
 1 "A waste of money, first off the guide talked for 4 1/2 hrs straight without…
 2 "Booked tour 1-2020, once I realized Covid was here to stay I started to cal…
 3 "Unethical, disrespectful and unprofessional.  If I could give them zero or …
 4 "The ATVs were nice however the trip as a whole was not. This isn’t an adren…
 5 "I would never spend money on this excursion. We never got above 20 miles pe…
 6 "tour goes at about a senior citizen pace dont waste your money if youre loo…
 7 "This tour was not good at all, There was a lot of rules that were  over bar…
 8 "Went on the ATV tour and we went on some hilly and rocky areas. Going down …
 9 "Dreadful! Lady who took us was in a bad mood and was rude! Also spoke to us…
10 "This experience was horrible!  The only way the experience could be improve…
# ℹ 860 more rows
…
