OHRV
…
doParallel::registerDoParallel()

# Tune the XGBoost model
xgb_tune <- tune_grid(
  xgb_wf,
  resamples = folds,
  grid = 50
)

Evaluate models

# Get the best XGBoost model based on tuning results
collect_metrics(xgb_tune)

# A tibble: 100 × 9
    mtry trees learn_rate .metric .estimator     mean     n  std_err .config    
   <int> <int>      <dbl> <chr>   <chr>         <dbl> <int>    <dbl> <chr>      
 1     2  1914    0.00221 rmse    standard     0.179     10  0.0149  Preprocess…
 2     2  1914    0.00221 rsq     standard     0.0990    10  0.0360  Preprocess…
 3     2  1578    0.00948 rmse    standard     0.171     10  0.0195  Preprocess…
 4     2  1578    0.00948 rsq     standard     0.0886    10  0.0323  Preprocess…
 5     3  1075    0.0193  rmse    standard     0.176     10  0.0195  Preprocess…
 6     3  1075    0.0193  rsq     standard     0.0728    10  0.0300  Preprocess…
 7     4   652    0.00175 rmse    standard     1.42      10  0.00972 Preprocess…
 8     4   652    0.00175 rsq     standard   NaN          0 NA       Preprocess…
 9     4  1951    0.00325 rmse    standard     0.174     10  0.0200  Preprocess…
10     4  1951    0.00325 rsq     standard     0.0816    10  0.0228  Preprocess…
# ℹ 90 more rows
…
